{
     "idps": {
        "g": {
           "name"      : "google-plus",
           "base_url"  : "https://accounts.google.com",
           "authorize" : "/o/oauth2/auth",
           "token"     : "/o/oauth2/token" ,
           "client_credentials_send_method": "form"
        } 
    }
}