{    
    "authorization_servers": {
       "mock": {     
          "type"                   : "openid",
          "url"                    : "{{ api_url }}",
          "client_id"              : "test",
          "client_secret"          : "test",
          "scope"                  : "profile email",
          "validate_url"           : "{{ api_url }}/oauth/as/d/mock/profile"
        }
    }
}
